22

1
-&x[dswLc#ot{%IwoTtd,N"?OU&gZrP#QB7y.fC3&,k]Iy5Ke{%k"y+{a-"9A7W~r19k[hXCx5
1
1
1
1
1

7
V7{5[6r.5YQk4=-r%d"[,'7lu
a5ISg,
2X\X7%]f:|W>ILtyl50GkDBqDLD-G4-He(R!H6t%lCDodJ?
UQ0k0Kaxf}_lR6*,<p}"xD"*KrWfz&LnxNM8ks1e
&a3!;ZOQA9*Hi}jEKIHBV?yY'E1.JzG}
ER53fyXT>V}Na:g<xfC"B}#_!eZn[qxuqN9)OH_qviheDf^=#eE+SxjKNMwbn40<{sMqo?2N,yE
7gWr^~z{k`]rPVg[:rCc$lhA-%
4 1 3 6 5 2 7
5 7 4 2 1 3 6
6 7 2 5 1 3 4
7 5 3 4 6 2 1
6 3 2 7 4 1 5
3 2 7 4 6 5 1
4 2 7 5 1 3 6

3
pra{#RGmyEC-K,8Kd6)1$4D*b:cVRcF#2&Fx&&#BwU9Ahc
J!X/6B;X.UNK<s<1N[HAW
HX0KGB;)QeF@Xy5A.kS@>?U:@3DDfv*p>bPmpuK.-h%/=
1 2 3
3 2 1
1 2 3
1 3 2
2 3 1
1 3 2

6
`):,h|g/fPM]ztWS9o
9\;UAaZE(Z&Aml{,BFE9bi0j\"`Xry&'4m2)vv%oZS8Lz\W_$|xg<hm}-*qhg
Q#q:O]I}571.<PduL-7+kc2W[h
sM95Q`Kgw~CF-F*RgucMKM^:}j
%|J`'739<!m,F,Yo9'Hed;x*>M5p'`;Ec*~P\oEjJk>He%3
M}@e)5W,NRh/S8V.s70c$3QBRPbwrA[;7z,qS*YS9;sBj%5"Z6Iq`BWLx`?_5u|L
3 6 2 4 1 5
6 4 5 1 3 2
6 3 5 4 2 1
3 1 4 6 5 2
5 6 3 4 1 2
4 5 2 3 6 1

6
wf:05M}J*}Kn[og-h4Y8f-aR|mbzjhern^#8?F
/-/p^~_7Ko>(wT,87\q0ttj@]PK0C`tRb
h#|x'
:H"brVVDu_Dn5Gq>;te]h_O}8'
3#HXkbDL$f'{%8N9U4p\
;%~ucmL;FJ@q5hG.@>4_A[J.,*/V::=/Z56%adf}&o6&;B`M
4 5 1 2 6 3
1 4 6 2 3 5
6 5 1 3 4 2
6 3 5 2 4 1
2 1 5 4 6 3
2 5 4 1 3 6
5 2 3 6 4 1

10
*;PD`}x2n>wQjIa%fzyAa-<w+0AS6YKoW*w5f"HaHMy\T4;VymsQEvt/PXG99rC^'8YFesG(cIIp;
(dCd({GDq2T:GGmD`If{|
qi0lBdja>IH"'\J@\<fNjds>W_'kxpevFt<}X6
.#$Dtxv#IV]5k4S<Q#2\z]32I*JU){6KBUL9Ul^5(IA-z7l[tt!Wt@X#qvG9
mo2$)A7<*}jOo"Q[<!G<0O1]6_CJW-q=<3GC7MF+FID*($71W,Ji
nz'1V$wzahTjS>oph&>'G,`!t-8Lj%0ofAcbhao#~$%y@v/MPq=
JdA2O[,[\-
VZlTjdTZGZn6pmK@3-hR4-:i_8H2r{`WpD4^**g=+X3(j_k[=LYb+zu8tj9L-
d#xxR?rbig=XwM}oN9
3z2||ZR@=H*r?Ccy.j3H2&goz,_D7qjy2)UZ056
10 1 8 5 3 7 2 4 9 6
3 4 1 8 9 7 6 10 5 2
4 8 1 10 7 2 5 6 9 3
7 6 2 9 5 4 8 3 1 10
4 8 5 2 6 3 1 7 9 10
1 9 10 3 7 6 2 8 5 4
9 7 8 3 5 10 1 2 4 6

9
}9/{#2cy>y$~x_3g*y(wv.79)6ypdr4Iyfj*B!l)Q^d(&e#+c38
MZwGS7+;$:xUV/YbU7P!f7!X;#F1caM~;nFh=\m
ruts<QUeHhnm/'L5y|sGL9(ZU$:-]kQX2}Y7kBil,\3gIz%-:
-VQ!;HtiA;yDkGjG"4P$,oi8/D)'{\2\-2B^
~A_zZweHQ^\"7i7hQTV[yuG`f;66n>KJ'df5xItpK$?|(]+!p**7@
0)M0CQq<E,mutb=td2mD0#;$q8U(ZbN5ivHvK|9f5:}k]!F8ZGL3Jp~%0J^\
O8.B
_Fy_qc~GoN9@io,OqGXx0e+uVS*7^-fUfd=OxQ5':W0S3JtZ_L^
rYJoTQK!.U|HesKAlU`0!!>Pl{iD6R2<Kp&YSXK7hQg@%u63r)O7;{f;7p>}8z,ji;??J-I#F-3+6S
3 2 4 5 6 9 1 7 8
4 3 7 6 5 1 8 9 2
2 3 4 9 6 1 5 7 8
3 8 1 9 6 2 4 5 7
9 1 5 4 8 7 3 2 6
5 9 1 6 4 2 8 7 3

7
`{@xpX83e~u_\w`A{>+cbtf8<^r_0aOwW&-,CYM.6r'=Jv]O[fj=t,GPX(}2TxYz[KNxnE;ujA\86mM
[1y"o*>YD;3Z^6)AuAn);M;o>'aiBZ+*$OfC?awi\4
)Gjwgf'n'AR2<E3~?^$WWCG\NEbSd?D>W.(u7
)sQ1zrGf)kY`SFQk3$5c3o7b'\9Kips^IIhiqc7~fC{[kT3XK<u[OBxFi
"L~.5/SrOXS!o=#VWaC(C94hVnHs1fWe!0v<[l?~w?]G+I64
WY
Aa<<b~w({Fny<7j*3^jS4?uBd(_/a</P5S(/l"$IHzOwc\D:RV]}J,Q5yhzb
5 7 4 1 3 6 2
6 3 1 4 7 5 2
2 5 3 7 1 4 6
6 4 3 7 2 1 5
4 1 7 5 6 2 3
6 7 2 3 5 1 4
2 5 7 3 1 6 4

9
{&P6XAiIe1uA1PU#,b)3z:>OkP#RwUgqi$C%O
BMP%f)`''ZE>b>JT]3R-Rh5wW"]]C)
1jwvl8|^gTu4:#J*}F+8Hcrwv<l>WZ+,x4W?>Sd{
i50si9T!\Z2Ey,PFdD0KEpTB]9vum9jlkquhF}k)%)RI,rJre@ma>
d>]tZWCdt\[=,{lh]H&G_q-x[a'W%iyKByz%Nk{<yM..q76mk'(>}^oWWty)ve3H9
NO<x'>CuVVxep$D[%XVf\y=b~u*"J=M]nl|jK=m0
X/ShcK{{;GVKlrnb9T
UfL|xwq(B&xJ("s]#X5{ALq",uhMtl`E0{#j!RIPMa"
&Ig0u+N^u2lar-,:}T?1n0h`>;,w
7 2 1 9 8 3 5 4 6
3 9 4 8 1 5 7 6 2
2 8 5 3 7 4 1 6 9
6 3 9 1 5 8 2 7 4
9 4 1 5 3 2 8 7 6
8 3 6 4 7 2 9 5 1
2 6 3 9 5 4 7 1 8
1 2 7 3 8 5 4 9 6
6 1 4 7 9 8 3 2 5

3
g3DQ4
J6-`@)bCPBBzxx<\M[1/Bi-3I'gn)88>_,+kgq"mD7.-tNS)6E2`-usJ[P-H.}
Q<IF48>"WK=X@n313C)FU'vRo6@L0|JJQ5ti~n?"omD`5)':f?
3 1 2

4
M)
G4=YAVd(^n["74in?nkz3w+=a6|*m>{MUa/f\ze1V<v>8BeK2x?dGPSSo
hB&Jy@A=~ddmgh87\J/OU2*-OjdJv&l'9".avWIAXC!D6Y7T{lV%e)[-`]o/@x![X@:+Id8Tv>KLo
~|OZ]0oPp7,
3 4 1 2
4 2 3 1
1 3 2 4
3 4 2 1
1 2 4 3

6
JTk4(qV7\P\S4j@:/FTdtLR-pi<38n.k8Xust]_2E.yCDhcFGI1%OZEc4r6q~\l$5oN61BU|sF
3;%ZdVy,>fUZlQvjspDhaW-2'Knm(QM,LF'8Yzpw9
P![Vi3J+LOg-1Wp4
GIKGmJYhf{wL7(Z}d8S-
<Mcpt8zXSB(yUpjlIPga}O:+Ef[R:5.X"Uuok3z=9JsXOfqdppKFB}
A)Ez#Fq?neM|9rJ}
2 3 6 1 4 5
5 1 4 2 6 3
1 6 2 3 4 5
2 5 1 6 4 3
4 1 3 2 5 6

5
UJv&W$d;(ll]z?|+we1*OJ1An`{?~;4pqrFtFSY:z^a)_.&ipN/
JLC|U@0!ND`=[H_4
ZFOpxTWfw&/7xUP*1$y!f9n(4()#s/RefmY:|!aXn`*ESnllQ#3<Uw$4ru
z1T%O[+]OHa`1:GLqCn?$
nC='MOveGrlx
2 3 1 4 5
1 4 5 3 2
1 2 5 4 3
1 5 2 4 3

6
$QX7[mcm,B;es[h[vG06H|q&kEwSTm$^]nSuc^u(a&%#t<.}8Xl~;f4})D8()1,mRo
4i3A#x=\OjKJdG3O|<%@h__"Q[u|"-a:SbuS:5=n3QEDA/l0vywb=H<X$R@7%u~'\F`2
pk4h8"2ma`i'i3l8oR_?1Q,dRwkZ}yrV8br~1<vG^cZp/E2-Y]q\<yG{Wof0hm,"FvQJWf]k"ro1\
pp
`^H9'5iKV~MJ;R3,-8
@VsO]nz[V+&6Hyqy-%?I^OmdBXQ*L+J$RX"+~1EVnHr#m?pz}/1casG"Qs&rULJ"YiK0uw%r_m=gM=-
4 2 3 6 1 5
1 2 6 3 5 4
1 6 2 5 4 3

10
8w&]]}_sMnbtFkM:Gk[w1]a;(#j|
,KwIq((>Tj0kn>2&Pn-?nWx}}jn*c2A4
vxtz@"]6=GOWz&w3AF-pSdEl-]32cWD4AjFa-(.YNXg$F<yvo#3?nug6\:F66?{Q9l/_
^O;rLx?l:C!K/+_mfyWn>difd(UavlU~6Yr/GrNS:,6~c!U6/ii:m,d9`Jo~7!_Z^7
K@Mu`-JMj`>8V5[e{c($5Ei
2Z(aOm!1`wU36j]
A{q!u!h,
K<7<|,8p_CSp6]7$8eG])lT,nTLixaIXm$F~\{.wtiAjC^5c
A_O+ewiPqKK=\W
`3\8E2i'6Qcd//D-
8 1 5 9 6 7 2 10 4 3
4 6 1 7 3 10 9 2 5 8
4 10 6 1 7 3 5 2 8 9
7 3 5 10 2 1 8 4 9 6
10 1 7 9 4 5 8 6 3 2
10 2 5 1 9 7 3 8 6 4
4 3 9 10 8 5 2 7 6 1

5
;xIzE,"<}4DjG{ww_Y3)wT*slTf?ue6
3(`4%Ds?v8@!Y?Oz\y^=8pc<`!eKM~%:O]+)}Q'
x-"y~eZ?i8
$Pdh*E;eej+&:zG+JL#rc&>
k(Za]1Sf_|sq6Xt,&8V?gBPB5t>Wx%0.'Jl7g/KWH^~w0LAvh=447{SB\
3 4 1 2 5
2 1 3 5 4
2 1 5 4 3
2 1 5 3 4
2 5 1 4 3
3 4 5 2 1
1 5 2 4 3

2
jKpO$LUvXjo}LGKD(]4D}lEl%"kTqtRA:"B[/Oh9s5}9OwV<lq/!+rEkRf(6`"h<F^0
@vHl8XA!T,S:t#^r@LR
1 2
1 2
2 1
1 2
2 1

8
K~D|`|Py0@]=ng)Eet)<L|2ZsSrs%LLKH}@Z!zS{8vU)]"Cw$xAA!rShyjfUn<;p
=R3.o0)JlY90`~O%(r~J~z#;fcVYj&/i/cq?A-xszJL9A#$IBDUdFQs>=lh0*+|f3O%2E~
RtQ)*$gzhrZ5wy?nwbrE^Fll|vg16HwRn"g,u(]G2]C??v
~v>
nMMDAx!:cNs.;>`#o[yBT&"`1j.Pu|;4WJ
0aNqRL)"RfL0/mynh*fZ_#*%#5*~$$GX@T,{x
uXW_GPT5k1iSl@<cChr>v5\tBx!s=Lin2ZH0v{9YOx++`K
$netG{>Cc[XN;ur1mB<&-iP@ohBIkye#C3.3nZF@],:-5fub}~U=ATh{mEw
1 7 6 3 4 2 5 8
8 7 6 2 4 3 5 1
6 1 2 4 8 5 3 7
5 4 3 8 6 1 7 2
7 4 3 2 6 5 8 1
7 1 8 6 3 5 4 2
7 4 5 3 2 8 1 6

2
n%_}*Yy01C^k[/ucW4V"18IRpb|T]:Pq)4M=fTuq60W_@J
0y6MLz}MXsJ7M$F};yRH(mN^hXHtI5K;;U|20k..@}?XzJJjNykktxOq
1 2
2 1
1 2
2 1
1 2
2 1

3
4-SpD%ZiQ7{
$5G[Ax$@hzvxk^4MM\W@PW5QYP!LqAv>W5j/R66k%NbZ)W%>_0[CU*?edT5hZL
(TK_|;*PXv]_DS4FRk"3H"k]s'jWc{gq+^Kr'/K~b2wm
2 3 1
3 1 2
1 3 2
3 1 2
3 2 1

6
l|1};E,8M^&(!nb$"~@q~dh.-nWVE[wO+'I^@
_v4"(CbkxW{902bBMfY6
!dU=ylNr^@w?@">Zvf)WDU)h~txL'xGz9=Rp@g}M`18W_\tk`@e4R8k8k}LvaCz;n!K'qIeTwcj*dj
s)Y,Df;?WXC]i0{$?p^ye]Rh}}7(q>5r1'T,b4!]f_mmo[NN/IZ08x8E*>;^'C8~r~%)<6sg+k"f
.@3OA_<v)bLZ`>=C/;hV>F$@dS)rIx~:AYp^i_D-bp7d_*a1@.=Ow
f;nZw:jx}scjp`oQy.S^Q=$Q2TQ%zb?*E,:4-\|$hQZ~$ftJk*XP
1 3 5 4 6 2
3 6 4 5 2 1
4 6 3 1 2 5
1 5 2 6 4 3
5 3 1 4 2 6
3 5 2 1 4 6

5
q8uo?8b>Dx8i~>x
0s#yz{FHjJ}9#oI0e^91uoA&cgIho{EFT*d^dX7
Q#AiJ1p+X!'+qv*y``JG}oGkI+ci2O
,G{yvXkwPD]QZ1l&P^2IwHi}N^!Js$d|nVxk:>Clw>8!}w@%eE:,Gp#=]bStGKv&v
"LJZ0Ktp?Y"e7Qy*,/.}DY;XS0r^~*t)q0d)n%IroDd
2 5 1 3 4
1 5 4 3 2
1 3 5 4 2
4 2 1 5 3
3 4 5 2 1
3 2 1 5 4
