21

3
Joshua
Alexandra
Lexi
1 2 3
2 1 3
3 2 1
1 2 3
2 3 1

2
Joshua
Michael
1 2
2 1
1 2
2 1
1 2

4
Joshua
Michael
Anderson
Lexi
1 2 3 4
2 3 4 1
3 2 4 1
1 4 2 3
2 4 3 1
3 2 4 1

4
Joshua
Michael
Anderson
Jane
4 3 2 1
3 2 1 4
3 4 1 2
2 3 4 1
1 2 3 4
2 3 1 4
1 2 4 3
2 3 4 1
1 2 3 4

5
Joshua
Alexandra
Lexi
Jonathan
Michael
1 3 4 5 2
2 3 4 1 5
2 5 4 3 1
1 2 3 4 5
4 5 3 2 1
1 2 5 4 3

6
Joshua
Michael
Jonathan
Lexi
Alexandra
Robert
1 3 4 5 6 2
2 3 4 5 6 1
5 6 4 3 2 1
2 3 4 1 5 6
5 6 3 2 1 4
3 2 4 5 6 1
1 3 2 4 5 6
4 5 3 2 1 6
2 3 4 5 1 6

3
Joshua
Michael
Robert
1 2 3
2 3 1
2 3 1
2 1 3
3 2 1
1 2 3
2 3 1
1 2 3

4
Joshua
Michael
Anderson
Robert
2 3 1 4
2 4 3 1
3 1 2 4
1 2 3 4
4 3 2 1
2 4 3 1
3 1 2 4

4
Joshua
Michael
Anderson
Jane
1 2 4 3
4 3 2 1
2 4 3 1
4 2 1 3
1 4 3 2
1 4 3 2

5
Joshua
Michael
Lexi
Alexandra
Robert
4 3 2 1 5
3 2 1 4 5
5 3 2 1 4
2 3 4 5 1
1 4 5 3 2
2 3 4 1 5
1 2 3 5 4

3
Joshua
Lexi
Robert
1 3 2
2 3 1
1 2 3
3 2 1
2 3 1
1 3 2

4
Joshua
Michael
Lexi
Robert
3 4 2 1
2 3 1 4
3 4 2 1
4 3 2 1
3 2 1 4
1 3 4 2

3
Joshua
Michael
Anderson
2 3 1
1 2 3
3 2 1
2 1 3
2 3 1
3 2 1

4
Joshua
Michael
Anderson
Jane
1 3 4 2
4 2 3 1
2 4 3 1
1 3 4 2
4 2 3 1
2 3 1 4
2 1 3 4

5
Robert
Michael
Joshua
Lexi
Alexandra
3 2 4 5 1
2 3 4 1 5
2 3 1 4 5
3 2 1 4 5
1 2 4 5 3
5 3 2 1 4
4 2 1 3 5
2 1 3 4 5
3 4 2 1 5
5 4 2 3 1
5 3 2 1 4

3
Joshua
Robert
Alexandra
1 3 2
2 3 1
1 2 3
3 2 1

2
Joshua
Michael
1 2
1 2
2 1
2 1

4
Joshua
Michael
Anderson
Robert
3 2 1 4
2 3 4 1
4 2 1 3
3 2 1 4
2 1 3 4
1 3 4 2
4 2 3 1
2 1 3 4
4 2 3 1

4
Joshua
Michael
Anderson
Jane
2 3 4 1
2 3 4 1
1 2 3 4
1 2 3 4
4 3 2 1

6
Joshua
Alexandra
Robert
Lexi
Jonathan
Michael
5 6 4 3 2 1
2 3 4 5 1 6
3 4 2 1 5 6
2 1 3 4 5 6
3 2 1 4 5 6
2 1 4 5 6 3
6 4 5 3 2 1
2 3 1 4 5 6
3 4 2 1 5 6
4 3 2 1 5 6
6 3 2 1 4 5
1 2 3 4 5 6

3
Joshua
Robert
Jonathan
3 2 1
2 3 1
1 2 3
1 2 3
2 3 1
3 1 2
1 2 3
3 2 1
2 3 1
2 1 3
2 3 1
