20

4
A
B
C
D
4 1 3 2
3 4 1 2
4 1 3 2
4 3 2 1
4 2 3 1
1 4 2 3
1 3 2 4

7
A
B
C
D
E
F
G
2 7 1 4 6 5 3
4 1 7 3 5 2 6
4 3 1 5 6 2 7
5 4 7 2 3 6 1

5
A
B
C
D
E
4 1 3 2 5
3 2 4 1 5
3 5 1 2 4
2 5 4 3 1
4 2 1 5 3
1 5 2 4 3

4
A
B
C
D
4 1 2 3
4 2 1 3
3 2 4 1
2 1 4 3
3 2 4 1
4 1 3 2

6
A
B
C
D
E
F
3 2 1 4 5 6
1 4 3 5 6 2
2 5 6 1 4 3
3 5 1 2 6 4
6 3 4 2 1 5
4 2 5 1 3 6
4 3 6 5 2 1
5 2 4 1 3 6
3 6 4 2 5 1

2
A
B
1 2
2 1
2 1

8
A
B
C
D
E
F
G
H
7 8 4 6 1 2 3 5
2 3 8 7 5 1 6 4
4 1 2 6 3 8 7 5
1 3 5 4 6 7 8 2
8 2 5 7 1 3 6 4
8 3 6 5 2 7 1 4
4 5 8 1 7 3 2 6

4
A
B
C
D
1 3 2 4
3 4 1 2

3
A
B
C
1 3 2
3 1 2
2 1 3
1 3 2
1 2 3
3 1 2

8
A
B
C
D
E
F
G
H
5 2 8 3 7 4 6 1
7 6 5 1 4 2 3 8
5 3 2 4 8 7 1 6
6 7 2 4 5 1 8 3
3 4 6 7 2 8 1 5
6 8 7 5 4 1 3 2
5 8 6 4 1 7 2 3

8
A
B
C
D
E
F
G
H
4 5 3 8 6 2 1 7
7 4 5 8 6 1 2 3
5 1 4 6 7 8 2 3
8 4 2 6 1 7 3 5
3 4 2 7 6 1 5 8
7 8 6 2 1 3 4 5
8 5 7 2 1 3 6 4
2 8 6 1 3 7 5 4

8
A
B
C
D
E
F
G
H
7 1 5 4 3 2 8 6
6 1 3 4 5 8 2 7
6 2 4 5 1 8 7 3
2 5 1 3 6 4 7 8
5 2 3 6 1 4 7 8
2 4 5 3 6 7 8 1

3
A
B
C
3 1 2

8
A
B
C
D
E
F
G
H
2 3 5 1 7 4 8 6
2 6 1 4 5 3 7 8
3 2 4 1 6 5 7 8
2 5 8 4 3 6 7 1
4 8 7 6 2 3 1 5

7
A
B
C
D
E
F
G
3 1 2 5 4 6 7
5 6 4 3 2 1 7
2 4 3 1 7 6 5
3 6 5 4 7 2 1
6 2 3 5 4 1 7
2 7 4 6 1 5 3
2 6 1 4 3 7 5

5
A
B
C
D
E
1 4 2 3 5
1 4 2 5 3
3 5 1 4 2
5 1 2 4 3
3 2 4 1 5
1 3 4 5 2
1 2 5 4 3

2
A
B
2 1
1 2

4
A
B
C
D
2 1 3 4
1 2 3 4
4 3 2 1
3 2 4 1
1 4 2 3
3 1 2 4
1 2 3 4
3 1 2 4
1 4 2 3

4
A
B
C
D
2 3 1 4
1 2 3 4
2 3 1 4
1 3 2 4

4
A
B
C
D
4 2 1 3
2 4 1 3
4 3 2 1
4 3 2 1
1 4 3 2
