If

you

can
read

this,

~~~

then
your

c0de

is

working
correctly!

E.

eeeeeeeee

ee
e
eeeeeee

ee
e
eeeeeeeee

E.

  eeeee

ee     ee
eeeeeee

ee

  eeeeee

E!
E?

S P   A     C       E         S
